{
    "items": [
      {
        "title": "Aster",
        "price": 9,
        "url": "./imgs/aster.jpg",
        "vendorCode": 124098,
        "color": "purple"
      },
      {
        "title": "Carnation",
        "price": 10,
        "url": "./imgs/carnation.jpg",
        "vendorCode": 324991,
        "color": "red"
      },
      {
        "title": "Chamomile",
        "price": 6,
        "url": "./imgs/chamomile.jpg",
        "vendorCode": 872387,
        "color": "white"
      },
      {
        "title": "Chrysanthemum",
        "price": 8,
        "url": "./imgs/chrysanthemum.jpg",
        "vendorCode": 134875,
        "color": "orange"
      },
      {
        "title": "Iris",
        "price": 7,
        "url": "./imgs/iris.png",
        "vendorCode": 343489,
        "color": "ligthblue"
      },
      {
        "title": "Lily",
        "price": 12,
        "url": "./imgs/lily.jpg",
        "vendorCode": 623897,
        "color": "orange"
      },
      {
        "title": "Lisianthus",
        "price": 7,
        "url": "./imgs/lisianthus.jpg",
        "vendorCode": 278123,
        "color": "ligthblue"
      },
      {
        "title": "Snowdrop",
        "price": 5,
        "url": "./imgs/snowdrop.jpg",
        "vendorCode": 983401,
        "color": "white"
      },
      {
        "title": "Rose",
        "price": 18,
        "url": "./imgs/rose.jpg",
        "vendorCode": 445001,
        "color": "pink"
      },
      {
        "title": "Tulip",
        "price": 15,
        "url": "./imgs/tulips.png",
        "vendorCode": 220156,
        "color": "yellow"
      }
    ]
  }
  